…
### Exercise 6

``` r
nobel_living_science |> filter(country_us == "USA" & born_country_us == "Other") |> select(born_country_original) |> group_by(born_country_original) |> summarise(count = n()) |> arrange(desc(count))
```

    ## # A tibble: 22 x 2
    ##    born_country_original                     count
    ##    <chr>                                     <int>
    ##  1 United Kingdom                                7
    ##  2 China                                         5
    ##  3 Germany                                       5
    ##  4 Canada                                        4
    ##  5 Japan                                         3
    ##  6 Australia                                     2
    ##  7 British Mandate of Palestine (now Israel)     2
    ##  8 Norway                                        2
    ##  9 West Germany (now Germany)                    2
    ## 10 Austria                                       1
    ## # ... with 12 more rows
